\relax 
\providecommand\hyper@newdestlabel[2]{}
\providecommand\HyperFirstAtBeginDocument{\AtBeginDocument}
\HyperFirstAtBeginDocument{\ifx\hyper@anchor\@undefined
\global\let\oldcontentsline\contentsline
\gdef\contentsline#1#2#3#4{\oldcontentsline{#1}{#2}{#3}}
\global\let\oldnewlabel\newlabel
\gdef\newlabel#1#2{\newlabelxx{#1}#2}
\gdef\newlabelxx#1#2#3#4#5#6{\oldnewlabel{#1}{{#2}{#3}}}
\AtEndDocument{\ifx\hyper@anchor\@undefined
\let\contentsline\oldcontentsline
\let\newlabel\oldnewlabel
\fi}
\fi}
\global\let\hyper@last\relax 
\gdef\HyperFirstAtBeginDocument#1{#1}
\providecommand\HyField@AuxAddToFields[1]{}
\providecommand\HyField@AuxAddToCoFields[2]{}
\citation{Talbot1836}
\citation{LordRayleigh1881}
\citation{Patorski1989,Wen2013}
\citation{Eberly1980}
\citation{Berry1996,Wojcik2000}
\citation{Buchkremer2000}
\citation{Sanz2007}
\citation{Heller1984,Kaplan1998}
\citation{Robinett2004}
\citation{Kinzel1995}
\citation{Stifter1997,Grossmann1997,Marzoli1998,Kaplan1998a,Berry2001}
\citation{Marzoli1998,Friesch2000}
\citation{Grossmann1997,Stifter1997,Marzoli1998,Friesch2000,Loinaz1999}
\citation{Hall1999}
\citation{Banchi2015,Genest2016a,Genest2016,Lemay2016,Kay2016,Compagno2016,Christandl2017}
\citation{Aronstein1997}
\citation{Berry2001}
\citation{Harter2001,Harter2001a}
\citation{Kazemi2013}
\citation{Berry1996a,Wolk2011,Bigourd2008}
\citation{Nowak1997,Chapman1995,Cronin2009}
\citation{Brezger2002,Hornberger2012}
\citation{Sonnentag2007,Korneev2012}
\citation{Case2009}
\citation{Ryu2006}
\citation{Deng1999,Mark2011}
\citation{Ahn2001}
\citation{Katsuki2009}
\citation{Ruostekoski2001,Gawryluk2006}
\citation{Nest2006}
\citation{Jo2009,Sommer2011,Valtolina2016,Trappe2016,Grochowski2017a}
\citation{Stoner1933,Massignan2014,Cui2014,Jiang2016}
\newlabel{FirstPage}{{}{1}{}{section*.1}{}}
\@writefile{toc}{\contentsline {title}{Fermionic quantum carpets: From canals and ridges to solitonlike structures}{1}{section*.2}}
\@writefile{toc}{\contentsline {abstract}{Abstract}{1}{section*.1}}
\@writefile{toc}{\contentsline {paragraph}{\numberline {}Introduction}{1}{section*.3}}
\@writefile{toc}{\contentsline {paragraph}{\numberline {}Ideal Fermi gas}{1}{section*.4}}
\@writefile{lof}{\contentsline {figure}{\numberline {1}{\ignorespaces  Radially-integrated probability density plots for one atom (left) and 5000 atoms (center) initially confined to a box with the width of $D/L=0.21$ and a perpendicular harmonic trap. In contrast to usual one atom situation in which blurry canals and ridges emerge, scenario involving larger number of particles is characterized by much sharper features. These structures become solitonlike -- thin, localized, and shape-preserving. (Right) Relative depths of these structures, both for right- and left-movers. }}{2}{figure.1}}
\newlabel{comp1}{{1}{2}{Radially-integrated probability density plots for one atom (left) and 5000 atoms (center) initially confined to a box with the width of $D/L=0.21$ and a perpendicular harmonic trap. In contrast to usual one atom situation in which blurry canals and ridges emerge, scenario involving larger number of particles is characterized by much sharper features. These structures become solitonlike -- thin, localized, and shape-preserving. (Right) Relative depths of these structures, both for right- and left-movers}{figure.1}{}}
\newlabel{exall}{{1}{2}{}{equation.0.1}{}}
\newlabel{dens32}{{4}{2}{}{equation.0.4}{}}
\citation{Grochowski2017a}
\citation{Grochowski2017a}
\citation{Gawryluk2017}
\newlabel{norma}{{}{3}{}{equation.0.4}{}}
\@writefile{toc}{\contentsline {paragraph}{\numberline {}Three-dimensional setup}{3}{section*.5}}
\@writefile{toc}{\contentsline {paragraph}{\numberline {}Two-component repulsive Fermi gas}{3}{section*.6}}
\@writefile{lof}{\contentsline {figure}{\numberline {2}{\ignorespaces  Comparison between the spatiotemporal density evolution of $12+12$ atoms initiated in a separated state for different values of contact interaction: $g=8$ (top left), $g=16$ (top right) $g=10000$ (bottom). The solitonlike structures are characterized by a finite lifetime in the presence of the interaction, but with the onset of the Stoner (ferromagnetic) phase transition, they revive as a double quantum carpet with a preserved initial domain structure. }}{4}{figure.2}}
\newlabel{comp5}{{2}{4}{Comparison between the spatiotemporal density evolution of $12+12$ atoms initiated in a separated state for different values of contact interaction: $g=8$ (top left), $g=16$ (top right) $g=10000$ (bottom). The solitonlike structures are characterized by a finite lifetime in the presence of the interaction, but with the onset of the Stoner (ferromagnetic) phase transition, they revive as a double quantum carpet with a preserved initial domain structure}{figure.2}{}}
\@writefile{lof}{\contentsline {figure}{\numberline {3}{\ignorespaces  Kinetic energies for consecutive spin-orbitals of one of the species as a function of time for different values of interaction strength. After some critical time, the dynamical equilibrium is reached -- there is no distinguished ordering of the orbitals as their kinetic energies fluctuate around a common average value. Time-averaged distribution of the kinetic energies proves to be Gaussian (see the histogram for $g=32$ in the inset). The time needed to achieve equilibrium is of the same order as the lifetime of the solitonlike structures visible in the one-particle density of the gas. }}{4}{figure.3}}
\newlabel{comp6}{{3}{4}{Kinetic energies for consecutive spin-orbitals of one of the species as a function of time for different values of interaction strength. After some critical time, the dynamical equilibrium is reached -- there is no distinguished ordering of the orbitals as their kinetic energies fluctuate around a common average value. Time-averaged distribution of the kinetic energies proves to be Gaussian (see the histogram for $g=32$ in the inset). The time needed to achieve equilibrium is of the same order as the lifetime of the solitonlike structures visible in the one-particle density of the gas}{figure.3}{}}
\bibcite{Talbot1836}{{1}{1836}{{Talbot}}{{}}}
\bibcite{LordRayleigh1881}{{2}{1881}{{{Lord Rayleigh}}}{{}}}
\bibcite{Patorski1989}{{3}{1989}{{Patorski}}{{}}}
\bibcite{Wen2013}{{4}{2013}{{Wen\ \emph  {et~al.}}}{{Wen, Zhang,\ and\ Xiao}}}
\bibcite{Eberly1980}{{5}{1980}{{Eberly\ \emph  {et~al.}}}{{Eberly, Narozhny,\ and\ Sanchez-Mondragon}}}
\bibcite{Berry1996}{{6}{1996}{{Berry}}{{}}}
\bibcite{Wojcik2000}{{7}{2000}{{W{\'{o}}jcik\ \emph  {et~al.}}}{{W{\'{o}}jcik, Bia{\l }ynicki-Birula,\ and\ {\.{Z}}yczkowski}}}
\bibcite{Buchkremer2000}{{8}{2000}{{Buchkremer\ \emph  {et~al.}}}{{Buchkremer, Dumke, Levsen, Birkl,\ and\ Ertmer}}}
\bibcite{Sanz2007}{{9}{2007}{{Sanz\ and\ Miret-Art{\'{e}}s}}{{}}}
\bibcite{Heller1984}{{10}{1984}{{Heller}}{{}}}
\bibcite{Kaplan1998}{{11}{1998}{{Kaplan\ and\ Heller}}{{}}}
\bibcite{Robinett2004}{{12}{2004}{{Robinett}}{{}}}
\bibcite{Kinzel1995}{{13}{1995}{{Kinzel}}{{}}}
\bibcite{Stifter1997}{{14}{1997}{{Stifter\ \emph  {et~al.}}}{{Stifter, Leichtie, Schleich,\ and\ Marklof}}}
\bibcite{Grossmann1997}{{15}{1997}{{Gro{\ss }mann\ \emph  {et~al.}}}{{Gro{\ss }mann, Rost,\ and\ Schleich}}}
\bibcite{Marzoli1998}{{16}{1998}{{Marzoli\ \emph  {et~al.}}}{{Marzoli, Saif, Bialynicki-Birula, Friesch, Kaplan,\ and\ Schleich}}}
\bibcite{Kaplan1998a}{{17}{1998}{{Kaplan\ \emph  {et~al.}}}{{Kaplan, Stifter, van Leeuwen, Lamb,\ and\ Schleich}}}
\bibcite{Berry2001}{{18}{2001}{{Berry\ \emph  {et~al.}}}{{Berry, Marzoli,\ and\ Schleich}}}
\bibcite{Friesch2000}{{19}{2000}{{Friesch\ \emph  {et~al.}}}{{Friesch, Marzoli,\ and\ Schleich}}}
\bibcite{Loinaz1999}{{20}{1999}{{Loinaz\ and\ Newman}}{{}}}
\bibcite{Hall1999}{{21}{1999}{{Hall\ \emph  {et~al.}}}{{Hall, Reineker,\ and\ Schleich}}}
\bibcite{Banchi2015}{{22}{2015}{{Banchi\ \emph  {et~al.}}}{{Banchi, Compagno,\ and\ Bose}}}
\bibcite{Genest2016a}{{23}{2016{}}{{Genest\ \emph  {et~al.}}}{{Genest, Vinet,\ and\ Zhedanov}}}
\bibcite{Genest2016}{{24}{2016{}}{{Genest\ \emph  {et~al.}}}{{Genest, Vinet,\ and\ Zhedanov}}}
\bibcite{Lemay2016}{{25}{2016}{{Lemay\ \emph  {et~al.}}}{{Lemay, Vinet,\ and\ Zhedanov}}}
\bibcite{Kay2016}{{26}{2016}{{Kay}}{{}}}
\bibcite{Compagno2016}{{27}{2017}{{Compagno\ \emph  {et~al.}}}{{Compagno, Banchi, Gross,\ and\ Bose}}}
\bibcite{Christandl2017}{{28}{2017}{{Christandl\ \emph  {et~al.}}}{{Christandl, Vinet,\ and\ Zhedanov}}}
\bibcite{Aronstein1997}{{29}{1997}{{Aronstein\ and\ Stroud}}{{}}}
\bibcite{Harter2001}{{30}{2001{}}{{Harter}}{{}}}
\bibcite{Harter2001a}{{31}{2001{}}{{Harter}}{{}}}
\bibcite{Kazemi2013}{{32}{2013}{{Kazemi\ \emph  {et~al.}}}{{Kazemi, Chaturvedi, Marzoli, O'Connell,\ and\ Schleich}}}
\bibcite{Berry1996a}{{33}{1996}{{Berry\ and\ Klein}}{{}}}
\bibcite{Wolk2011}{{34}{2011}{{W{\"{o}}lk\ \emph  {et~al.}}}{{W{\"{o}}lk, Merkel, Schleich, Averbukh,\ and\ Girard}}}
\bibcite{Bigourd2008}{{35}{2008}{{Bigourd\ \emph  {et~al.}}}{{Bigourd, Chatel, Schleich,\ and\ Girard}}}
\bibcite{Nowak1997}{{36}{1997}{{Nowak\ \emph  {et~al.}}}{{Nowak, Kurtsiefer, Pfau,\ and\ David}}}
\bibcite{Chapman1995}{{37}{1995}{{Chapman\ \emph  {et~al.}}}{{Chapman, Ekstrom, Hammond, Schmiedmayer, Tannian, Wehinger,\ and\ Pritchard}}}
\bibcite{Cronin2009}{{38}{2009}{{Cronin\ \emph  {et~al.}}}{{Cronin, Schmiedmayer,\ and\ Pritchard}}}
\bibcite{Brezger2002}{{39}{2002}{{Brezger\ \emph  {et~al.}}}{{Brezger, Hackerm{\"{u}}ller, Uttenthaler, Petschinka, Arndt,\ and\ Zeilinger}}}
\bibcite{Hornberger2012}{{40}{2012}{{Hornberger\ \emph  {et~al.}}}{{Hornberger, Gerlich, Haslinger, Nimmrichter,\ and\ Arndt}}}
\bibcite{Sonnentag2007}{{41}{2007}{{Sonnentag\ and\ Hasselbach}}{{}}}
\bibcite{Korneev2012}{{42}{2012}{{Korneev\ \emph  {et~al.}}}{{Korneev, Popruzhenko, Goreslavski, Yan, Bauer, Becker, K{\"{u}}bel, Kling, R{\"{o}}del, W{\"{u}}nsche,\ and\ Paulus}}}
\bibcite{Case2009}{{43}{2009}{{Case\ \emph  {et~al.}}}{{Case, Tomandl, Deachapunya,\ and\ Arndt}}}
\bibcite{Ryu2006}{{44}{2006}{{Ryu\ \emph  {et~al.}}}{{Ryu, Andersen, Vaziri, d'Arcy, Grossman, Helmerson,\ and\ Phillips}}}
\bibcite{Deng1999}{{45}{1999}{{Deng\ \emph  {et~al.}}}{{Deng, Hagley, Denschlag, Simsarian, Edwards, Clark, Helmerson, Rolston,\ and\ Phillips}}}
\bibcite{Mark2011}{{46}{2011}{{Mark\ \emph  {et~al.}}}{{Mark, Haller, Danzl, Lauber, Gustavsson,\ and\ N{\"{a}}gerl}}}
\bibcite{Ahn2001}{{47}{2001}{{Ahn\ \emph  {et~al.}}}{{Ahn, Hutchinson, Rangan,\ and\ Bucksbaum}}}
\bibcite{Katsuki2009}{{48}{2009}{{Katsuki\ \emph  {et~al.}}}{{Katsuki, Chiba, Meier, Girard,\ and\ Ohmori}}}
\bibcite{Ruostekoski2001}{{49}{2001}{{Ruostekoski\ \emph  {et~al.}}}{{Ruostekoski, Kneer, Schleich,\ and\ Rempe}}}
\bibcite{Gawryluk2006}{{50}{2006}{{Gawryluk\ \emph  {et~al.}}}{{Gawryluk, Brewczyk, Gajda,\ and\ Mostowski}}}
\bibcite{Nest2006}{{51}{2006}{{Nest}}{{}}}
\bibcite{Jo2009}{{52}{2009}{{Jo\ \emph  {et~al.}}}{{Jo, Lee, Choi, Christensen, Kim, Thywissen, Pritchard,\ and\ Ketterle}}}
\bibcite{Sommer2011}{{53}{2011}{{Sommer\ \emph  {et~al.}}}{{Sommer, Ku, Roati,\ and\ Zwierlein}}}
\bibcite{Valtolina2016}{{54}{2017}{{Valtolina\ \emph  {et~al.}}}{{Valtolina, Scazza, Amico, Burchianti, Recati, Enss, Inguscio, Zaccanti,\ and\ Roati}}}
\bibcite{Trappe2016}{{55}{2016}{{Trappe\ \emph  {et~al.}}}{{Trappe, Grochowski, Brewczyk,\ and\ Rz{\c {a}}{\.{z}}ewski}}}
\@writefile{toc}{\contentsline {section}{\numberline {}References}{5}{section*.7}}
\bibcite{Grochowski2017a}{{56}{2017}{{Grochowski\ \emph  {et~al.}}}{{Grochowski, Karpiuk, Brewczyk,\ and\ Rz{\c {a}}{\.{z}}ewski}}}
\bibcite{Stoner1933}{{57}{1933}{{Stoner}}{{}}}
\bibcite{Massignan2014}{{58}{2014}{{Massignan\ \emph  {et~al.}}}{{Massignan, Zaccanti,\ and\ Bruun}}}
\bibcite{Cui2014}{{59}{2014}{{Cui\ and\ Ho}}{{}}}
\bibcite{Jiang2016}{{60}{2016}{{Jiang\ \emph  {et~al.}}}{{Jiang, Kurlov, Guan, Schreck,\ and\ Shlyapnikov}}}
\bibcite{Gawryluk2017}{{61}{2018}{{Gawryluk\ \emph  {et~al.}}}{{Gawryluk, Karpiuk, Gajda, Rz{\c {a}}{\.{z}}ewski,\ and\ Brewczyk}}}
\bibstyle{apsrev4-1}
\citation{REVTEX41Control}
\citation{apsrev41Control}
\newlabel{LastBibItem}{{61}{6}{}{section*.7}{}}
\newlabel{LastPage}{{}{6}{}{}{}}
