\relax 
\providecommand\hyper@newdestlabel[2]{}
\providecommand\HyperFirstAtBeginDocument{\AtBeginDocument}
\HyperFirstAtBeginDocument{\ifx\hyper@anchor\@undefined
\global\let\oldcontentsline\contentsline
\gdef\contentsline#1#2#3#4{\oldcontentsline{#1}{#2}{#3}}
\global\let\oldnewlabel\newlabel
\gdef\newlabel#1#2{\newlabelxx{#1}#2}
\gdef\newlabelxx#1#2#3#4#5#6{\oldnewlabel{#1}{{#2}{#3}}}
\AtEndDocument{\ifx\hyper@anchor\@undefined
\let\contentsline\oldcontentsline
\let\newlabel\oldnewlabel
\fi}
\fi}
\global\let\hyper@last\relax 
\gdef\HyperFirstAtBeginDocument#1{#1}
\providecommand\HyField@AuxAddToFields[1]{}
\providecommand\HyField@AuxAddToCoFields[2]{}
\newlabel{FirstPage}{{}{1}{}{Doc-Start}{}}
\@writefile{toc}{\contentsline {title}{Fermionic quantum carpets: From canals and ridges to solitonlike structures -- Supplemental Materials}{1}{section*.1}}
\@writefile{toc}{\appendix }
\@writefile{toc}{\contentsline {section}{\numberline {}Derivation of $p$-th contribution}{1}{section*.2}}
\newlabel{reldeporb}{{8}{1}{}{equation.Alph0.8}{}}
\@writefile{toc}{\contentsline {section}{\numberline {}Derivation of widths of the structures}{2}{section*.3}}
\newlabel{ert}{{2}{2}{}{equation.Alph0.2}{}}
\newlabel{sua}{{3}{2}{}{equation.Alph0.3}{}}
\newlabel{asd}{{7}{2}{}{equation.Alph0.7}{}}
\newlabel{hard}{{10}{2}{}{equation.Alph0.10}{}}
\bibdata{supp_materialNotes}
\bibstyle{apsrev4-1}
\citation{REVTEX41Control}
\citation{apsrev41Control}
\newlabel{LastPage}{{}{3}{}{}{}}
